<?xml version="1.0" encoding="UTF-8" standalone="no"?>
<svg
   xmlns:dc="http://purl.org/dc/elements/1.1/"
   xmlns:cc="http://creativecommons.org/ns#"
   xmlns:rdf="http://www.w3.org/1999/02/22-rdf-syntax-ns#"
   xmlns:svg="http://www.w3.org/2000/svg"
   xmlns="http://www.w3.org/2000/svg"
   xmlns:sodipodi="http://sodipodi.sourceforge.net/DTD/sodipodi-0.dtd"
   xmlns:inkscape="http://www.inkscape.org/namespaces/inkscape"
   width="48"
   height="48"
   id="svg2"
   version="1.1"
   inkscape:version="0.91 r13725"
   sodipodi:docname="tick.svg">
  <metadata
     id="metadata105">
    <rdf:RDF>
      <cc:Work
         rdf:about="">
        <dc:format>image/svg+xml</dc:format>
        <dc:type
           rdf:resource="http://purl.org/dc/dcmitype/StillImage" />
        <dc:title></dc:title>
      </cc:Work>
    </rdf:RDF>
  </metadata>
  <sodipodi:namedview
     pagecolor="#ffffff"
     bordercolor="#666666"
     borderopacity="1"
     objecttolerance="10"
     gridtolerance="10"
     guidetolerance="10"
     inkscape:pageopacity="0"
     inkscape:pageshadow="2"
     inkscape:window-width="1366"
     inkscape:window-height="715"
     id="namedview103"
     showgrid="false"
     inkscape:zoom="4.9166667"
     inkscape:cx="2.0338983"
     inkscape:cy="23.901051"
     inkscape:window-x="0"
     inkscape:window-y="0"
     inkscape:window-maximized="1"
     inkscape:current-layer="svg2" />
  <defs
     id="defs4">
    <linearGradient
       id="c"
       y2="24.53"
       gradientUnits="userSpaceOnUse"
       y1="-5.41"
       x2="-91"
       x1="-83.8">
      <stop
         stop-color="#a7cc5c"
         offset="0"
         id="stop39" />
      <stop
         stop-color="#789e2d"
         offset="1"
         id="stop41" />
    </linearGradient>
  </defs>
  <g
     transform="matrix(1.1595757,-0.27701208,0.27701208,1.1595757,122.69734,-11.595238)"
     id="g97"
     style="stroke-width:1.17400002;stroke-linecap:round;stroke-linejoin:round">
    <path
       d="m -73.88,-4.63 c -0.51,-0.18 -1.09,-0.05 -1.47,0.38 l -16.38,18.1 -5.93,-7.58 c -0.57,-0.51 -1.44,-0.48 -1.95,0.09 l -4.3,3.43 c -0.51,0.57 -0.47,1.44 0.1,1.95 0,0 10.73,14.25 10.75,14.26 0.13,0.12 0.28,0.2 0.44,0.26 0.51,0.19 1.12,0.07 1.51,-0.36 l 22.1,-24.43 c 0.51,-0.57 0.47,-1.44 -0.1,-1.95 l -4.28,-3.89 c -0.14,-0.13 -0.31,-0.22 -0.48,-0.28 z"
       id="path99"
       style="fill:url(#c);stroke:#42770c"
       inkscape:connector-curvature="0" />
    <path
       d="m -74.98,-3.2 -8.31,9.22 -7.38,8.12 c -0.21,0.13 -0.28,0.67 -1.05,0.69 -0.53,10e-4 -0.58,-0.2 -1.02,-0.67 l -5.24,-6.65 c -0.58,-0.75 -0.57,-0.71 -1.2,-0.32 l -3.37,2.65 c -0.88,0.58 -0.88,1.06 -0.14,1.83 0,0 9.75,12.93 9.77,12.95 0.13,0.11 0.06,0.13 0.58,0.71 0.33,0.37 0.89,-0.42 1.26,-0.83 L -69.79,1.06 c 0.48,-0.53 0.45,-0.53 -0.08,-1.02 l -3.85,-3.39 c -0.55,-0.5 -0.56,-0.49 -1.2,0.16 z"
       id="path101"
       inkscape:connector-curvature="0"
       style="opacity:0.47999998;fill:none;stroke:#ffffff" />
  </g>
</svg>
